{
  "functions": { "source": "./functions", "exclude": "test" },
  "firestore": {
    "rules": "firestore/firestore.rules",
    "indexes": "firestore/firestore.indexes.json"
  },
  "hosting": {
    "public": "hosting",
    "ignore": [
      "firebase.json",
      "**/.*",
      "**/node_modules/**",
      "node_modules"
    ],
    "rewrites": []
  },
  "storage": {
    "rules": "storage/storage.rules"
  }
}
